divider.vcd
$date
	Tue Sep 17 22:56:31 2024
$end
$version
	Icarus Verilog
$end
$timescale
	1s
$end
$scope module tb_int_divider $end
$var wire 16 ! remainder [15:0] $end
$var wire 16 " quotient [15:0] $end
$var wire 1 # done $end
$var reg 1 $ clk $end
$var reg 16 % dividend [15:0] $end
$var reg 16 & divisor [15:0] $end
$var reg 16 ' expected_quotient [15:0] $end
$var reg 16 ( expected_remainder [15:0] $end
$var reg 1 ) rst_n $end
$var reg 1 * start $end
$scope module uut $end
$var wire 1 $ clk $end
$var wire 16 + dividend [15:0] $end
$var wire 16 , divisor [15:0] $end
$var wire 16 - quotient [15:0] $end
$var wire 16 . remainder [15:0] $end
$var wire 1 ) rst_n $end
$var wire 1 * start $end
$var reg 16 / counter [15:0] $end
$var reg 16 0 div_reg [15:0] $end
$var reg 16 1 divisor_reg [15:0] $end
$var reg 1 # done $end
$var reg 2 2 next_state [1:0] $end
$var reg 16 3 quotient_reg [15:0] $end
$var reg 2 4 state [1:0] $end
$upscope $end
$scope begin $ivl_for_loop0 $end
$var integer 32 5 i [31:0] $end
$upscope $end
$upscope $end
$enddefinitions $end
#0
$dumpvars
b0 5
bx 4
bx 3
b0 2
bx 1
bx 0
bx /
bx .
bx -
bx ,
bx +
0*
0)
bx (
bx '
bx &
bx %
0$
x#
bx "
bx !
$end
#5
b0 4
0#
b0 /
b0 "
b0 -
b0 3
b0 1
b0 !
b0 .
b0 0
1$
#10
b111010010100100 1
b1110101101011001 !
b1110101101011001 .
b1110101101011001 0
b1 2
0$
1*
b1110101101011001 %
b1110101101011001 +
b111010010100100 &
b111010010100100 ,
b10 '
b1000010001 (
1)
#15
b1 4
b1 2
0*
1$
#20
0$
#25
b1 /
b1 "
b1 -
b1 3
b111011010110101 !
b111011010110101 .
b111011010110101 0
1$
#30
0$
#35
b10 2
b10 /
b10 "
b10 -
b10 3
b1000010001 !
b1000010001 .
b1000010001 0
1$
#40
0$
#45
b0 2
b11 /
b10 4
1$
#50
0$
#55
b0 4
1#
1$
#60
0$
#65
0#
b0 /
b0 "
b0 -
b0 3
b1011000001111000 1
b1100001110101100 !
b1100001110101100 .
b1100001110101100 0
b1 2
1*
b1100001110101100 %
b1100001110101100 +
b1011000001111000 &
b1011000001111000 ,
b1 '
b1001100110100 (
b1 5
1$
#70
0$
#75
b1 4
b1 2
0*
1$
#80
0$
#85
b10 2
b1 /
b1 "
b1 -
b1 3
b1001100110100 !
b1001100110100 .
b1001100110100 0
1$
#90
0$
#95
b0 2
b10 4
b10 /
1$
#100
0$
#105
1#
b0 4
1$
#110
0$
#115
0#
b0 /
b0 "
b0 -
b0 3
b1011011100101100 1
b1111111 !
b1111111 .
b1111111 0
b1 2
1*
b1111111 %
b1111111 +
b1011011100101100 &
b1011011100101100 ,
b0 '
b1111111 (
b10 5
1$
#120
0$
#125
b1 4
b10 2
0*
1$
#130
0$
#135
b0 2
b10 4
b1 /
1$
#140
0$
#145
1#
b0 4
1$
#150
0$
#155
0#
b0 /
b1000100111111101 1
b1000100101101010 !
b1000100101101010 .
b1000100101101010 0
b1 2
1*
b1000100101101010 %
b1000100101101010 +
b1000100111111101 &
b1000100111111101 ,
b1000100101101010 (
b11 5
1$
#160
0$
#165
b1 4
b10 2
0*
1$
#170
0$
#175
b0 2
b10 4
b1 /
1$
#180
0$
#185
1#
b0 4
1$
#190
0$
#195
0#
b0 /
b1001010001010 1
b101110010000 !
b101110010000 .
b101110010000 0
b1 2
1*
b101110010000 %
b101110010000 +
b1001010001010 &
b1001010001010 ,
b101110010000 (
b100 5
1$
#200
0$
#205
b1 4
b10 2
0*
1$
#210
0$
#215
b0 2
b10 4
b1 /
1$
#220
0$
#225
1#
b0 4
1$
#230
0$
#235
0#
b0 /
b1100010010000011 1
b101110000010010 !
b101110000010010 .
b101110000010010 0
b1 2
1*
b101110000010010 %
b101110000010010 +
b1100010010000011 &
b1100010010000011 ,
b101110000010010 (
b101 5
1$
#240
0$
#245
b1 4
b10 2
0*
1$
#250
0$
#255
b0 2
b10 4
b1 /
1$
#260
0$
#265
1#
b0 4
1$
#270
0$
#275
0#
b0 /
b1110110110101011 1
b110101000000 !
b110101000000 .
b110101000000 0
b1 2
1*
b110101000000 %
b110101000000 +
b1110110110101011 &
b1110110110101011 ,
b110101000000 (
b110 5
1$
#280
0$
#285
b1 4
b10 2
0*
1$
#290
0$
#295
b0 2
b10 4
b1 /
1$
#300
0$
#305
1#
b0 4
1$
#310
0$
#315
0#
b0 /
b10010111011000 1
b110000100111011 !
b110000100111011 .
b110000100111011 0
b1 2
1*
b110000100111011 %
b110000100111011 +
b10010111011000 &
b10010111011000 ,
b10 '
b1010110001011 (
b111 5
1$
#320
0$
#325
b1 4
b1 2
0*
1$
#330
0$
#335
b1 /
b1 "
b1 -
b1 3
b11101101100011 !
b11101101100011 .
b11101101100011 0
1$
#340
0$
#345
b10 2
b10 /
b10 "
b10 -
b10 3
b1010110001011 !
b1010110001011 .
b1010110001011 0
1$
#350
0$
#355
b0 2
b10 4
b11 /
1$
#360
0$
#365
1#
b0 4
1$
#370
0$
#375
0#
b0 /
b0 "
b0 -
b0 3
b1101000100010101 1
b111101111011110 !
b111101111011110 .
b111101111011110 0
b1 2
1*
b111101111011110 %
b111101111011110 +
b1101000100010101 &
b1101000100010101 ,
b0 '
b111101111011110 (
b1000 5
1$
#380
0$
#385
b1 4
b10 2
0*
1$
#390
0$
#395
b0 2
b10 4
b1 /
1$
#400
0$
#405
1#
b0 4
1$
#410
0$
#415
0#
b0 /
b1010011010111111 1
b100100111111 !
b100100111111 .
b100100111111 0
b1 2
1*
b100100111111 %
b100100111111 +
b1010011010111111 &
b1010011010111111 ,
b100100111111 (
b1001 5
1$
#420
0$
#425
b1 4
b10 2
0*
1$
#430
0$
#435
b0 2
b10 4
b1 /
1$
#440
0$
#445
1#
b0 4
1$
#450
0$
#455
b1010 5
1$
